{
  "EDITOR_STATE": {
    "allProjectFiles": {
      "5ba02086-25b9-4178-8425-a70d4a8a039f": {
        "id": "5ba02086-25b9-4178-8425-a70d4a8a039f",
        "parent": null,
        "name": "NewH",
        "type": "DIRECTORY",
        "isDirectory": true,
        "children": [
          "c4a324b0-5b41-46f8-9339-dd2e538d17eb",
          "95559f43-1c87-4e4d-b95b-0feb567e03d7",
          "6de15b48-02de-4f02-96b2-2c2d61b9e0cb",
          "02416ae1-53c0-4b24-9078-131da4c06e54",
          "e1e38ef2-50e0-46de-9dd6-a08acc3e1ce8"
        ],
        "isRemovable": false,
        "filePath": "NewH"
      },
      "c4a324b0-5b41-46f8-9339-dd2e538d17eb": {
        "id": "c4a324b0-5b41-46f8-9339-dd2e538d17eb",
        "parent": "5ba02086-25b9-4178-8425-a70d4a8a039f",
        "name": "lambda.js",
        "type": "JS_LAMBDA",
        "isDirectory": false,
        "children": [],
        "isRemovable": true,
        "filePath": "NewH/lambda.js",
        "code": "let AWS = require('aws-sdk');\nconst ddb = new AWS.DynamoDB.DocumentClient();\nconst kinesis = new AWS.Kinesis();\n\nexports.handler = function (event, context, callback) {\n    ddb.get({\n        TableName: 'BTMenu',\n        Key: { 'itemCode': 'i' }\n    }).promise()\n        .then((data) => {\n            //your logic goes here hirudinee test\n        })\n        .catch((err) => {\n            //handle error\n        });\n\n    callback(null, { \"message\": \"Successfully executed\" });\n}",
        "config": {
          "runtime": "nodejs8.10",
          "handler": "handler",
          "timeout": 60,
          "memory": 128,
          "layers": []
        },
        "triggers": [
          {
            "resourceName": "apigusEast1HiruTestindunilsub1get",
            "config": {}
          }
        ],
        "testCases": {
          "32523bc4-740e-4e61-9cbd-20bd0302f24a": {
            "id": "32523bc4-740e-4e61-9cbd-20bd0302f24a",
            "name": "Test event",
            "functionId": "c4a324b0-5b41-46f8-9339-dd2e538d17eb",
            "event": "{\r\n    \"key1\": \"value1\",\r\n    \"key2\": \"value2\",\r\n    \"key3\": \"value3\"\r\n}",
            "eventTemplate": "hello-world"
          }
        }
      },
      "95559f43-1c87-4e4d-b95b-0feb567e03d7": {
        "id": "95559f43-1c87-4e4d-b95b-0feb567e03d7",
        "parent": "5ba02086-25b9-4178-8425-a70d4a8a039f",
        "name": "hirulambda.js",
        "type": "JS_LAMBDA",
        "isDirectory": false,
        "children": [],
        "isRemovable": true,
        "filePath": "NewH/hirulambda.js",
        "code": "exports.handler = function(event, context, callback) {\n    console.log(\"test\");\n    callback(null, {\"message\": \"Successfully executed\"});\n}",
        "config": {
          "runtime": "nodejs8.10",
          "handler": "handler",
          "timeout": 60,
          "memory": 128,
          "layers": []
        },
        "triggers": [
          {
            "resourceName": "apigusEast1HiruTesthirudineeget",
            "config": {}
          }
        ],
        "testCases": {
          "4b254898-fbcc-4b77-a21f-7c35b4045101": {
            "id": "4b254898-fbcc-4b77-a21f-7c35b4045101",
            "name": "Test event",
            "functionId": "95559f43-1c87-4e4d-b95b-0feb567e03d7",
            "event": "{\r\n    \"key1\": \"value1\",\r\n    \"key2\": \"value2\",\r\n    \"key3\": \"value3\"\r\n}",
            "eventTemplate": "hello-world"
          }
        }
      },
      "6de15b48-02de-4f02-96b2-2c2d61b9e0cb": {
        "id": "6de15b48-02de-4f02-96b2-2c2d61b9e0cb",
        "parent": "5ba02086-25b9-4178-8425-a70d4a8a039f",
        "name": "file.js",
        "type": "JS_LAMBDA",
        "isDirectory": false,
        "children": [],
        "isRemovable": true,
        "filePath": "NewH/file.js",
        "code": "exports.handler = function(event, context, callback) {\n    \n    callback(null, {\"message\": \"Successfully executed\"});\n}",
        "config": {
          "runtime": "nodejs8.10",
          "handler": "handler",
          "timeout": 60,
          "memory": 128,
          "layers": []
        },
        "triggers": [
          {
            "resourceName": "apigusEast1HiruTesttest123get",
            "config": {}
          }
        ],
        "testCases": {
          "45ef6f25-f830-4fa0-86f2-cbd61e3f9fba": {
            "id": "45ef6f25-f830-4fa0-86f2-cbd61e3f9fba",
            "name": "Test event",
            "functionId": "6de15b48-02de-4f02-96b2-2c2d61b9e0cb",
            "event": "{\r\n    \"key1\": \"value1\",\r\n    \"key2\": \"value2\",\r\n    \"key3\": \"value3\"\r\n}",
            "eventTemplate": "hello-world"
          },
          "e1cfb8b6-50f8-4546-8e88-7e99bf84d63a": {
            "id": "e1cfb8b6-50f8-4546-8e88-7e99bf84d63a",
            "name": "Test event",
            "functionId": "6de15b48-02de-4f02-96b2-2c2d61b9e0cb",
            "event": "{\r\n    \"key1\": \"value1\",\r\n    \"key2\": \"value2\",\r\n    \"key3\": \"value3\"\r\n}",
            "eventTemplate": "hello-world"
          }
        }
      },
      "02416ae1-53c0-4b24-9078-131da4c06e54": {
        "id": "02416ae1-53c0-4b24-9078-131da4c06e54",
        "parent": "5ba02086-25b9-4178-8425-a70d4a8a039f",
        "name": "file04.js",
        "type": "JS_LAMBDA",
        "isDirectory": false,
        "children": [],
        "isRemovable": true,
        "filePath": "NewH/file04.js",
        "code": "exports.handler = function(event, context, callback) {\n    \n    callback(null, {\"message\": \"Successfully executed\"});\n}",
        "config": {
          "runtime": "nodejs8.10",
          "handler": "handler",
          "timeout": 60,
          "memory": 128,
          "layers": []
        },
        "triggers": [
          {
            "resourceName": "apigusEast1HiruTesthirudineeput",
            "config": {}
          }
        ],
        "testCases": {
          "a3799d90-c673-4358-a70d-5e9a8b406b3f": {
            "id": "a3799d90-c673-4358-a70d-5e9a8b406b3f",
            "name": "Test event",
            "functionId": "02416ae1-53c0-4b24-9078-131da4c06e54",
            "event": "{\r\n    \"key1\": \"value1\",\r\n    \"key2\": \"value2\",\r\n    \"key3\": \"value3\"\r\n}",
            "eventTemplate": "hello-world"
          }
        }
      },
      "e1e38ef2-50e0-46de-9dd6-a08acc3e1ce8": {
        "id": "e1e38ef2-50e0-46de-9dd6-a08acc3e1ce8",
        "parent": "5ba02086-25b9-4178-8425-a70d4a8a039f",
        "name": "file05.js",
        "type": "JS_LAMBDA",
        "isDirectory": false,
        "children": [],
        "isRemovable": true,
        "filePath": "NewH/file05.js",
        "code": "exports.handler = function(event, context, callback) {\n    console.log(\"test\");\n    callback(null, {\"message\": \"Successfully executed\"});\n}",
        "config": {
          "runtime": "nodejs8.10",
          "handler": "handler",
          "timeout": 60,
          "memory": 128,
          "layers": []
        },
        "triggers": [
          {
            "resourceName": "apigusEast1HiruTestfile05get",
            "config": {}
          }
        ],
        "testCases": {
          "6041ccc8-b60b-4210-b50c-e018776bac3f": {
            "id": "6041ccc8-b60b-4210-b50c-e018776bac3f",
            "name": "Test event",
            "functionId": "e1e38ef2-50e0-46de-9dd6-a08acc3e1ce8",
            "event": "{\r\n    \"key1\": \"value1\",\r\n    \"key2\": \"value2\",\r\n    \"key3\": \"value3\"\r\n}",
            "eventTemplate": "hello-world"
          }
        }
      }
    },
    "rootNode": "5ba02086-25b9-4178-8425-a70d4a8a039f",
    "openFiles": [
      "95559f43-1c87-4e4d-b95b-0feb567e03d7",
      "c4a324b0-5b41-46f8-9339-dd2e538d17eb",
      "6de15b48-02de-4f02-96b2-2c2d61b9e0cb",
      "02416ae1-53c0-4b24-9078-131da4c06e54",
      "e1e38ef2-50e0-46de-9dd6-a08acc3e1ce8"
    ],
    "currentFileId": "e1e38ef2-50e0-46de-9dd6-a08acc3e1ce8",
    "resources": {
      "kinesishirutest": {
        "name": "kinesishirutest",
        "type": "Kinesis",
        "config": {
          "mode": 0,
          "StreamName": "hirutest",
          "shards": 5,
          "region": "us-east-1",
          "operation": "describe-stream"
        }
      },
      "kinesishirutesttt": {
        "name": "kinesishirutesttt",
        "type": "Kinesis",
        "config": {
          "mode": 1,
          "StreamName": "hirutesttt",
          "region": "us-east-1",
          "operation": "describe-stream"
        }
      },
      "ddbBTMenu": {
        "name": "ddbBTMenu",
        "type": "DynamoDB",
        "config": {
          "mode": 1,
          "operation": "get",
          "table": {
            "arn": "arn:aws:dynamodb:us-east-1:318300609668:table/BTMenu",
            "name": "BTMenu",
            "partitionKey": "itemCode",
            "partitionKeyType": "S",
            "hasSortKey": false,
            "sortKey": "",
            "sortKeyType": "S",
            "payPerRequest": true,
            "mode": 1,
            "streamArn": "arn:aws:dynamodb:us-east-1:318300609668:table/BTMenu/stream/2019-08-22T10:29:15.010"
          },
          "isGlobalEditMode": false,
          "parameters": {
            "Key": {
              "itemCode": "i"
            },
            "Item": {},
            "ExpressionAttributeValues": {}
          },
          "triggerParams": {},
          "validator": {
            "validatableFields": {},
            "validity": true
          },
          "valid": true
        }
      },
      "ddbHSPromotions": {
        "name": "ddbHSPromotions",
        "type": "DynamoDB",
        "config": {
          "mode": 1,
          "operation": "query",
          "table": {
            "arn": "arn:aws:dynamodb:us-east-1:318300609668:table/HS_Promotions",
            "name": "HS_Promotions",
            "partitionKey": "promoId",
            "partitionKeyType": "S",
            "hasSortKey": true,
            "sortKey": "timestamp",
            "sortKeyType": "N",
            "payPerRequest": true,
            "mode": 1
          },
          "isGlobalEditMode": false,
          "parameters": {
            "TableName": "BTMenu",
            "ExpressionAttributeValues": {
              ":yy": 11
            },
            "KeyConditionExpression": "itemCode = :yy",
            "FilterExpression": "ww = :yy"
          },
          "triggerParams": {},
          "validator": {
            "validatableFields": {},
            "validity": true
          },
          "valid": true
        }
      },
      "apigusEast1HiruTestindunilsub1get": {
        "name": "apigusEast1HiruTestindunilsub1get",
        "type": "API_GATEWAY",
        "config": {
          "selectedRegion": "us-east-1",
          "apiMode": 1,
          "apiName": "HiruTest",
          "apiId": "en8h7rqny1",
          "endpointType": "EDGE",
          "rootResourceId": "tq2sx73633",
          "existingResources": {
            "/indunilsub1": "04go1x",
            "/indunilsub": "5oob67",
            "/": "tq2sx73633"
          },
          "resourceMode": 1,
          "resourcePath": "/indunilsub1",
          "resourceName": "indunilsub1",
          "resourceId": "04go1x",
          "restMethod": "GET",
          "proxyIntegration": false,
          "enableCORS": false,
          "stageMode": 1,
          "stageName": "Test",
          "stageDeploymentId": "ca8f6v",
          "mode": 1
        }
      },
      "apigusEast1HiruTesthirudineeget": {
        "name": "apigusEast1HiruTesthirudineeget",
        "type": "API_GATEWAY",
        "config": {
          "selectedRegion": "us-east-1",
          "apiMode": 1,
          "apiName": "HiruTest",
          "apiId": "en8h7rqny1",
          "endpointType": "EDGE",
          "rootResourceId": "tq2sx73633",
          "existingResources": {
            "/indunilsub1": "04go1x",
            "/indunilsub": "5oob67",
            "/": "tq2sx73633"
          },
          "resourceMode": 0,
          "resourcePath": "/hirudinee",
          "resourceName": "hirudinee",
          "resourceId": "iy7i3h",
          "restMethod": "GET",
          "proxyIntegration": false,
          "enableCORS": false,
          "stageMode": 1,
          "stageName": "Test",
          "stageDeploymentId": "i8cc7y",
          "mode": 1
        }
      },
      "apigusEast1HiruTesttest123get": {
        "name": "apigusEast1HiruTesttest123get",
        "type": "API_GATEWAY",
        "config": {
          "selectedRegion": "us-east-1",
          "apiMode": 1,
          "apiName": "HiruTest",
          "apiId": "en8h7rqny1",
          "endpointType": "EDGE",
          "rootResourceId": "tq2sx73633",
          "existingResources": {
            "/indunilsub1": "04go1x",
            "/indunilsub": "5oob67",
            "/": "tq2sx73633"
          },
          "resourceMode": 0,
          "resourceName": "test123",
          "resourcePath": "/test123",
          "restMethod": "GET",
          "proxyIntegration": false,
          "enableCORS": false,
          "stageMode": 1,
          "stageName": "Test",
          "stageDeploymentId": "g6wbbr",
          "mode": 1
        }
      },
      "apigusEast1HiruTesthirudineeput": {
        "name": "apigusEast1HiruTesthirudineeput",
        "type": "API_GATEWAY",
        "config": {
          "selectedRegion": "us-east-1",
          "apiMode": 1,
          "apiName": "HiruTest",
          "apiId": "en8h7rqny1",
          "endpointType": "EDGE",
          "rootResourceId": "tq2sx73633",
          "existingResources": {
            "/indunilsub1": "04go1x",
            "/indunilsub": "5oob67",
            "/": "tq2sx73633"
          },
          "resourceMode": 0,
          "resourceName": "hirudinee",
          "resourcePath": "/hirudinee",
          "restMethod": "PUT",
          "proxyIntegration": false,
          "enableCORS": false,
          "stageMode": 1,
          "stageName": "Test",
          "stageDeploymentId": "i8cc7y",
          "mode": 1
        }
      },
      "apigusEast1HiruTestfile05get": {
        "name": "apigusEast1HiruTestfile05get",
        "type": "API_GATEWAY",
        "config": {
          "selectedRegion": "us-east-1",
          "apiMode": 1,
          "apiName": "HiruTest",
          "apiId": "en8h7rqny1",
          "endpointType": "EDGE",
          "rootResourceId": "tq2sx73633",
          "existingResources": {
            "/indunilsub1": "04go1x",
            "/indunilsub": "5oob67",
            "/": "tq2sx73633"
          },
          "resourceMode": 0,
          "resourceName": "file05",
          "resourcePath": "/file05",
          "restMethod": "GET",
          "proxyIntegration": false,
          "enableCORS": false,
          "stageMode": 1,
          "stageName": "Test",
          "stageDeploymentId": "um0v62",
          "mode": 1
        }
      }
    },
    "customTemplate": {
      "dialect": null,
      "definitions": null
    },
    "envVariables": [
      {
        "lambdaId": "all",
        "varKey": "SIGMA_AWS_ACC_ID",
        "varValue": null,
        "shouldPersist": false,
        "displayOnly": false,
        "editable": false
      }
    ],
    "packageJSON": {
      "dependencies": {
        "aws-sdk": {
          "name": "aws-sdk",
          "language": "javascript",
          "version": "2.176.0",
          "dev": true,
          "notRemovable": false
        }
      }
    }
  },
  "PROJECT_META": {
    "projectName": "NewH",
    "projectDescription": "",
    "projectVersion": "1.0.0",
    "projectRegion": "us-east-1",
    "platform": "AWS",
    "platformRegions": {},
    "lastSave": 1568795402262
  },
  "VCS_STATE": {
    "provider": "BitBucket",
    "repo": {
      "name": "hiru1809_test",
      "url": "https://bitbucket.org/hirudineeliyanage/hiru1809_test"
    }
  }
}